^C:\PROJECTS\VS\TOKEN_MANAGER_V0\TOKEN_MANAGER_V0\DEBUG\CLIBRARY.OBJ|C:\PROJECTS\VS\TOKEN_MANAGER_V0\TOKEN_MANAGER_V0\DEBUG\CSLOTMANAGER.OBJ|C:\PROJECTS\VS\TOKEN_MANAGER_V0\TOKEN_MANAGER_V0\DEBUG\SOURCE.OBJ
C:\PROJECTS\VS\TOKEN_MANAGER_V0\DEBUG\TOKEN_MANAGER_V0.ILK
C:\PROJECTS\VS\TOKEN_MANAGER_V0\DEBUG\TOKEN_MANAGER_V0.EXE
C:\PROJECTS\VS\TOKEN_MANAGER_V0\DEBUG\TOKEN_MANAGER_V0.PDB
